<?xml version="1.0" encoding="utf-8"?>
<!-- Generator: Adobe Illustrator 19.0.0, SVG Export Plug-In . SVG Version: 6.00 Build 0)  -->
<svg version="1.1" id="Layer_1" xmlns="http://www.w3.org/2000/svg" xmlns:xlink="http://www.w3.org/1999/xlink" x="0px" y="0px"
	 viewBox="0 0 91 91" style="enable-background:new 0 0 91 91;" xml:space="preserve">
<style type="text/css">
	.Drop_x0020_Shadow{fill:none;}
	.Round_x0020_Corners_x0020_2_x0020_pt{fill:#FFFFFF;stroke:#000000;stroke-miterlimit:10;}
	.Live_x0020_Reflect_x0020_X{fill:none;}
	.Bevel_x0020_Soft{fill:url(#SVGID_1_);}
	.Dusk{fill:#FFFFFF;}
	.Foliage_GS{fill:#FFDD00;}
	.Pompadour_GS{fill-rule:evenodd;clip-rule:evenodd;fill:#44ADE2;}
	.st0{fill:none;stroke:#EE326E;stroke-linecap:round;stroke-miterlimit:10;}
</style>
<linearGradient id="SVGID_1_" gradientUnits="userSpaceOnUse" x1="0" y1="0" x2="0.7071" y2="0.7071">
	<stop  offset="0" style="stop-color:#DEDFE3"/>
	<stop  offset="0.1738" style="stop-color:#D8D9DD"/>
	<stop  offset="0.352" style="stop-color:#C9CACD"/>
	<stop  offset="0.5323" style="stop-color:#B4B5B8"/>
	<stop  offset="0.7139" style="stop-color:#989A9C"/>
	<stop  offset="0.8949" style="stop-color:#797C7E"/>
	<stop  offset="1" style="stop-color:#656B6C"/>
</linearGradient>
<g id="XMLID_2_">
	<circle id="XMLID_12_" class="st0" cx="45.5" cy="45.5" r="44.7"/>
	<rect id="XMLID_11_" x="22.7" y="44.5" class="st0" width="6" height="23.8"/>
	<rect id="XMLID_10_" x="32.6" y="41.5" class="st0" width="6" height="26.8"/>
	<rect id="XMLID_9_" x="42.5" y="51.5" class="st0" width="6" height="16.9"/>
	<rect id="XMLID_8_" x="52.4" y="46.5" class="st0" width="6" height="21.8"/>
	<rect id="XMLID_7_" x="62.4" y="39.5" class="st0" width="6" height="28.8"/>
	<polyline id="XMLID_6_" class="st0" points="22.7,33.4 35.6,28.4 45.5,38.3 55.4,34.4 68.3,25.4 	"/>
	<circle id="XMLID_5_" class="st0" cx="35.6" cy="28.4" r="1"/>
	<circle id="XMLID_4_" class="st0" cx="45.5" cy="38.3" r="1"/>
	<circle id="XMLID_3_" class="st0" cx="55.4" cy="34.4" r="1"/>
</g>
</svg>
