<?xml version="1.0" encoding="utf-8"?>
<!-- Generator: Adobe Illustrator 19.0.0, SVG Export Plug-In . SVG Version: 6.00 Build 0)  -->
<svg version="1.1" id="Layer_1" xmlns="http://www.w3.org/2000/svg" xmlns:xlink="http://www.w3.org/1999/xlink" x="0px" y="0px"
	 viewBox="0 0 91 91" style="enable-background:new 0 0 91 91;" xml:space="preserve">
<style type="text/css">
	.st0{fill:#1E79BF;}
	.st1{fill:none;stroke:#FFFFFF;stroke-linecap:round;stroke-miterlimit:10;}
	.st2{fill:#1C75BC;}
	.st3{fill:#1C75BC;stroke:#FFFFFF;stroke-linecap:round;stroke-miterlimit:10;}
</style>
<g id="XMLID_28_">
	<circle id="XMLID_38_" class="st0" cx="47" cy="45.5" r="45"/>
	<rect id="XMLID_37_" x="23.5" y="44" class="st1" width="6" height="24"/>
	<rect id="XMLID_36_" x="33.5" y="41" class="st1" width="6" height="27"/>
	<rect id="XMLID_35_" x="43.5" y="51" class="st1" width="6" height="17"/>
	<rect id="XMLID_34_" x="53.5" y="46" class="st1" width="6" height="22"/>
	<rect id="XMLID_33_" x="63.5" y="39" class="st1" width="6" height="29"/>
	<polyline id="XMLID_32_" class="st1" points="23.5,33 36.5,28 46.5,38 56.5,34 69.5,25 	"/>
	<circle id="XMLID_31_" class="st1" cx="36.5" cy="28" r="1"/>
	<circle id="XMLID_30_" class="st1" cx="46.5" cy="38" r="1"/>
	<circle id="XMLID_29_" class="st1" cx="56.5" cy="34" r="1"/>
</g>
<g id="XMLID_2_">
	<circle id="XMLID_14_" class="st2" cx="45.5" cy="45.5" r="45"/>
	<rect id="XMLID_13_" x="22" y="44" class="st3" width="6" height="24"/>
	<rect id="XMLID_12_" x="32" y="41" class="st3" width="6" height="27"/>
	<rect id="XMLID_11_" x="42" y="51" class="st3" width="6" height="17"/>
	<rect id="XMLID_9_" x="52" y="46" class="st3" width="6" height="22"/>
	<rect id="XMLID_7_" x="62" y="39" class="st3" width="6" height="29"/>
	<polyline id="XMLID_6_" class="st3" points="22,33 35,28 45,38 55,34 68,25 	"/>
	<circle id="XMLID_5_" class="st3" cx="35" cy="28" r="1"/>
	<circle id="XMLID_4_" class="st3" cx="45" cy="38" r="1"/>
	<circle id="XMLID_3_" class="st3" cx="55" cy="34" r="1"/>
</g>
</svg>
