<?xml version="1.0" encoding="utf-8"?>
<!-- Generator: Adobe Illustrator 19.0.0, SVG Export Plug-In . SVG Version: 6.00 Build 0)  -->
<svg version="1.1" id="Layer_1" xmlns="http://www.w3.org/2000/svg" xmlns:xlink="http://www.w3.org/1999/xlink" x="0px" y="0px"
	 viewBox="0 0 149 88" style="enable-background:new 0 0 149 88;" xml:space="preserve">
<style type="text/css">
	.st0{fill:none;stroke:#EE326E;stroke-linecap:round;stroke-miterlimit:10;}
	.st1{fill:none;stroke:#EE326E;stroke-linecap:round;stroke-linejoin:round;stroke-miterlimit:10;}
</style>
<g id="XMLID_25_">
	<g id="XMLID_38_">
		<circle id="XMLID_45_" class="st0" cx="74.5" cy="28.9" r="27.9"/>
		<g id="XMLID_42_">
			<path id="XMLID_47_" class="st0" d="M133,85.8c-0.1,0.1-0.3,0.2-0.4,0.3c-1.2,1.1-3.1,1.1-4.2,0c-10.8-10.4-23.3-20.9-31.9-31.4
				c-0.9-1.1-0.6-2.8,0.6-3.9c0.1-0.1,0.3-0.2,0.4-0.3c1.2-1.1,2.8-1.1,3.6,0c8.4,10.4,20.9,20.9,31.9,31.4
				C134.3,83,134.3,84.8,133,85.8z"/>
		</g>
		<line id="XMLID_41_" class="st0" x1="98.8" y1="57.4" x2="103.3" y2="52.8"/>
		<line id="XMLID_40_" class="st0" x1="124.1" y1="82.8" x2="128.7" y2="78.2"/>
		<line id="XMLID_39_" class="st0" x1="94.2" y1="48.7" x2="96.3" y2="50.8"/>
	</g>
	<g id="XMLID_34_">
		<line id="XMLID_37_" class="st0" x1="134.8" y1="23.7" x2="134.8" y2="38.4"/>
		<path id="XMLID_36_" class="st0" d="M132.9,23.4L132.9,23.4c0,0-0.1,0-0.1,0c-2.5,0-4.5,2-4.5,4.5s2,4.5,4.5,4.5c0,0,0.1,0,0.1,0
			v0h1.8v-9H132.9z"/>
		<line id="XMLID_35_" class="st0" x1="129.1" y1="38.4" x2="132.4" y2="32.5"/>
	</g>
	<g id="XMLID_31_">
		<path id="XMLID_33_" class="st0" d="M21.5,25.6c-1.3-1.2-3-1.9-4.9-1.9c-4,0-7.2,3.2-7.2,7.2s3.2,7.2,7.2,7.2s7.2-3.2,7.2-7.2
			h-7.1"/>
		<circle id="XMLID_32_" class="st0" cx="16.7" cy="30.9" r="15.9"/>
	</g>
	<circle id="XMLID_30_" class="st0" cx="132.3" cy="30.9" r="15.9"/>
	<polyline id="XMLID_29_" class="st0" points="56.6,41.9 69.5,28.9 75.5,34.9 90.9,19.5 	"/>
	<polyline id="XMLID_28_" class="st0" points="84,19 91.4,19 91.4,26.4 	"/>
	<line id="XMLID_27_" class="st1" x1="102.4" y1="30.9" x2="116.4" y2="30.9"/>
	<line id="XMLID_26_" class="st1" x1="32.6" y1="30.9" x2="46.6" y2="30.9"/>
</g>
<g id="XMLID_2_">
	<g id="XMLID_17_">
		<circle id="XMLID_24_" class="st0" cx="74.5" cy="28.9" r="27.9"/>
		<g id="XMLID_21_">
			<path id="XMLID_49_" class="st0" d="M133,85.8c-0.1,0.1-0.3,0.2-0.4,0.3c-1.2,1.1-3.1,1.1-4.2,0c-10.8-10.4-23.3-20.9-31.9-31.4
				c-0.9-1.1-0.6-2.8,0.6-3.9c0.1-0.1,0.3-0.2,0.4-0.3c1.2-1.1,2.8-1.1,3.6,0c8.4,10.4,20.9,20.9,31.9,31.4
				C134.3,83,134.3,84.8,133,85.8z"/>
		</g>
		<line id="XMLID_20_" class="st0" x1="98.8" y1="57.4" x2="103.3" y2="52.8"/>
		<line id="XMLID_19_" class="st0" x1="124.1" y1="82.8" x2="128.7" y2="78.2"/>
		<line id="XMLID_18_" class="st0" x1="94.2" y1="48.7" x2="96.3" y2="50.8"/>
	</g>
	<g id="XMLID_13_">
		<line id="XMLID_16_" class="st0" x1="134.8" y1="23.7" x2="134.8" y2="38.4"/>
		<path id="XMLID_15_" class="st0" d="M132.9,23.4L132.9,23.4c0,0-0.1,0-0.1,0c-2.5,0-4.5,2-4.5,4.5s2,4.5,4.5,4.5c0,0,0.1,0,0.1,0
			v0h1.8v-9H132.9z"/>
		<line id="XMLID_14_" class="st0" x1="129.1" y1="38.4" x2="132.4" y2="32.5"/>
	</g>
	<g id="XMLID_10_">
		<path id="XMLID_12_" class="st0" d="M21.5,25.6c-1.3-1.2-3-1.9-4.9-1.9c-4,0-7.2,3.2-7.2,7.2s3.2,7.2,7.2,7.2s7.2-3.2,7.2-7.2
			h-7.1"/>
		<circle id="XMLID_11_" class="st0" cx="16.7" cy="30.9" r="15.9"/>
	</g>
	<circle id="XMLID_9_" class="st0" cx="132.3" cy="30.9" r="15.9"/>
	<polyline id="XMLID_6_" class="st0" points="56.6,41.9 69.5,28.9 75.5,34.9 90.9,19.5 	"/>
	<polyline id="XMLID_5_" class="st0" points="84,19 91.4,19 91.4,26.4 	"/>
	<line id="XMLID_4_" class="st1" x1="102.4" y1="30.9" x2="116.4" y2="30.9"/>
	<line id="XMLID_3_" class="st1" x1="32.6" y1="30.9" x2="46.6" y2="30.9"/>
</g>
</svg>
